(export (version D)
  (design
    (source D:\SmallDesign\Breathe_V2\V1.3\PCB\3Nov2019\V1.3.sch)
    (date "11/06/19 9:57:37 AM")
    (tool "Eeschema (5.1.0)-1")
    (sheet (number 1) (name /) (tstamps /)
      (title_block
        (title)
        (company)
        (rev)
        (date)
        (source V1.3.sch)
        (comment (number 1) (value ""))
        (comment (number 2) (value ""))
        (comment (number 3) (value ""))
        (comment (number 4) (value "")))))
  (components
    (comp (ref D2)
      (value "D_TVS 12V")
      (footprint Diode_THT:D_A-405_P5.08mm_Vertical_AnodeUp)
      (datasheet ~)
      (libsource (lib Device) (part D_TVS) (description "Bidirectional transient-voltage-suppression diode"))
      (sheetpath (names /) (tstamps /))
      (tstamp 5CF4BB55))
    (comp (ref R4)
      (value 10k)
      (footprint Resistor_THT:R_Axial_DIN0207_L6.3mm_D2.5mm_P2.54mm_Vertical)
      (datasheet ~)
      (libsource (lib Device) (part R) (description Resistor))
      (sheetpath (names /) (tstamps /))
      (tstamp 5CF66A19))
    (comp (ref R2)
      (value 5.6k)
      (footprint Resistor_THT:R_Axial_DIN0207_L6.3mm_D2.5mm_P2.54mm_Vertical)
      (datasheet ~)
      (libsource (lib Device) (part R) (description Resistor))
      (sheetpath (names /) (tstamps /))
      (tstamp 5CF57304))
    (comp (ref R1)
      (value 1k)
      (footprint Resistor_THT:R_Axial_DIN0207_L6.3mm_D2.5mm_P2.54mm_Vertical)
      (datasheet ~)
      (libsource (lib Device) (part R) (description Resistor))
      (sheetpath (names /) (tstamps /))
      (tstamp 5CF572FE))
    (comp (ref U4)
      (value SIM800L)
      (footprint "footprints:KiCad documents_Libraries_SIM800.pretty_Sim800L")
      (libsource (lib V1.3-rescue) (part SIM800L-sim800l-V1.1-rescue-V1.2-rescue) (description ""))
      (sheetpath (names /) (tstamps /))
      (tstamp 5CF536FC))
    (comp (ref J2)
      (value Screw_Terminal_01x02)
      (footprint TerminalBlock_Phoenix:TerminalBlock_Phoenix_MKDS-1,5-2-5.08_1x02_P5.08mm_Horizontal)
      (libsource (lib V1.3-rescue) (part Screw_Terminal_01x02-AQS_PCB-rescue-V1.1-rescue-V1.2-rescue) (description ""))
      (sheetpath (names /) (tstamps /))
      (tstamp 5D00D352))
    (comp (ref J3)
      (value Conn_01x05)
      (footprint Connector_PinHeader_2.54mm:PinHeader_1x05_P2.54mm_Vertical)
      (datasheet ~)
      (libsource (lib Connector_Generic) (part Conn_01x05) (description "Generic connector, single row, 01x05, script generated (kicad-library-utils/schlib/autogen/connector/)"))
      (sheetpath (names /) (tstamps /))
      (tstamp 5D04B8A8))
    (comp (ref JP4)
      (value Jumper_NO_Small)
      (footprint Connector_PinHeader_2.54mm:PinHeader_1x02_P2.54mm_Vertical)
      (datasheet ~)
      (libsource (lib Device) (part Jumper_NO_Small) (description "Jumper, normally open, small symbol"))
      (sheetpath (names /) (tstamps /))
      (tstamp 5D0546EE))
    (comp (ref Q1)
      (value 2N7000)
      (footprint Package_TO_SOT_THT:TO-92L_Inline_Wide)
      (datasheet https://www.fairchildsemi.com/datasheets/2N/2N7000.pdf)
      (libsource (lib Transistor_FET) (part 2N7000) (description "0.2A Id, 200V Vds, N-Channel MOSFET, 2.6V Logic Level, TO-92"))
      (sheetpath (names /) (tstamps /))
      (tstamp 5D06842D))
    (comp (ref R5)
      (value 10k)
      (footprint Resistor_THT:R_Axial_DIN0207_L6.3mm_D2.5mm_P2.54mm_Vertical)
      (datasheet ~)
      (libsource (lib Device) (part R) (description Resistor))
      (sheetpath (names /) (tstamps /))
      (tstamp 5D06E940))
    (comp (ref R7)
      (value 10k)
      (footprint Resistor_THT:R_Axial_DIN0207_L6.3mm_D2.5mm_P2.54mm_Vertical)
      (datasheet ~)
      (libsource (lib Device) (part R) (description Resistor))
      (sheetpath (names /) (tstamps /))
      (tstamp 5D08361A))
    (comp (ref Q2)
      (value 2N7000)
      (footprint Package_TO_SOT_THT:TO-92L_Inline_Wide)
      (datasheet https://www.fairchildsemi.com/datasheets/2N/2N7000.pdf)
      (libsource (lib Transistor_FET) (part 2N7000) (description "0.2A Id, 200V Vds, N-Channel MOSFET, 2.6V Logic Level, TO-92"))
      (sheetpath (names /) (tstamps /))
      (tstamp 5D097B28))
    (comp (ref R6)
      (value 10k)
      (footprint Resistor_THT:R_Axial_DIN0207_L6.3mm_D2.5mm_P2.54mm_Vertical)
      (datasheet ~)
      (libsource (lib Device) (part R) (description Resistor))
      (sheetpath (names /) (tstamps /))
      (tstamp 5D097B2E))
    (comp (ref R8)
      (value 10k)
      (footprint Resistor_THT:R_Axial_DIN0207_L6.3mm_D2.5mm_P2.54mm_Vertical)
      (datasheet ~)
      (libsource (lib Device) (part R) (description Resistor))
      (sheetpath (names /) (tstamps /))
      (tstamp 5D097B3C))
    (comp (ref U5)
      (value BME280_module)
      (footprint footprints:BME_280)
      (libsource (lib V1.3-rescue) (part BME280_module-BME280-V1.1-rescue-V1.2-rescue) (description ""))
      (sheetpath (names /) (tstamps /))
      (tstamp 5D13D165))
    (comp (ref F1)
      (value 1A)
      (footprint Fuse:Fuse_Littelfuse-LVR100)
      (datasheet ~)
      (libsource (lib Device) (part Fuse) (description Fuse))
      (sheetpath (names /) (tstamps /))
      (tstamp 5CF8C469))
    (comp (ref C4)
      (value 1uF)
      (footprint Capacitor_THT:C_Disc_D5.0mm_W2.5mm_P2.50mm)
      (datasheet ~)
      (libsource (lib Device) (part C) (description "Unpolarized capacitor"))
      (sheetpath (names /) (tstamps /))
      (tstamp 5CFFDFB7))
    (comp (ref C10)
      (value 1000uF)
      (footprint Capacitor_THT:CP_Radial_D10.0mm_P5.00mm)
      (datasheet ~)
      (libsource (lib Device) (part CP1) (description "Polarized capacitor, US symbol"))
      (sheetpath (names /) (tstamps /))
      (tstamp 5CFFDFCB))
    (comp (ref C6)
      (value 33pF)
      (footprint Capacitor_THT:C_Disc_D5.0mm_W2.5mm_P2.50mm)
      (datasheet ~)
      (libsource (lib Device) (part C) (description "Unpolarized capacitor"))
      (sheetpath (names /) (tstamps /))
      (tstamp 5CFFDFDA))
    (comp (ref C8)
      (value 10pF)
      (footprint Capacitor_THT:C_Disc_D5.0mm_W2.5mm_P2.50mm)
      (datasheet ~)
      (libsource (lib Device) (part C) (description "Unpolarized capacitor"))
      (sheetpath (names /) (tstamps /))
      (tstamp 5CFFDFE0))
    (comp (ref R13)
      (value 10K)
      (footprint Resistor_THT:R_Axial_DIN0207_L6.3mm_D2.5mm_P2.54mm_Vertical)
      (datasheet ~)
      (libsource (lib Device) (part R) (description Resistor))
      (sheetpath (names /) (tstamps /))
      (tstamp 5D00FD6B))
    (comp (ref D1)
      (value "D_Zener 5.6V 1W")
      (footprint Diode_THT:D_T-1_P2.54mm_Vertical_AnodeUp)
      (datasheet ~)
      (libsource (lib Device) (part D_Zener) (description "Zener diode"))
      (sheetpath (names /) (tstamps /))
      (tstamp 5D24C903))
    (comp (ref U2)
      (value MIC29302WU)
      (footprint Package_TO_SOT_SMD:TO-263-5_TabPin3)
      (datasheet http://ww1.microchip.com/downloads/en/devicedoc/20005685a.pdf)
      (libsource (lib Regulator_Linear) (part MIC29302WU) (description "3A low dropout linear regulator, adjustable output, TO-263"))
      (sheetpath (names /) (tstamps /))
      (tstamp 5D19D917))
    (comp (ref C1)
      (value 1uF)
      (footprint Capacitor_THT:C_Disc_D5.0mm_W2.5mm_P2.50mm)
      (datasheet ~)
      (libsource (lib Device) (part C) (description "Unpolarized capacitor"))
      (sheetpath (names /) (tstamps /))
      (tstamp 5D1A1227))
    (comp (ref R12)
      (value 220)
      (footprint Resistor_THT:R_Axial_DIN0207_L6.3mm_D2.5mm_P2.54mm_Vertical)
      (datasheet ~)
      (libsource (lib Device) (part R) (description Resistor))
      (sheetpath (names /) (tstamps /))
      (tstamp 5D1C13C7))
    (comp (ref R14)
      (value 100)
      (footprint Resistor_THT:R_Axial_DIN0207_L6.3mm_D2.5mm_P2.54mm_Vertical)
      (datasheet ~)
      (libsource (lib Device) (part R) (description Resistor))
      (sheetpath (names /) (tstamps /))
      (tstamp 5D1C16CD))
    (comp (ref C2)
      (value 1000uF)
      (footprint Capacitor_THT:CP_Radial_D10.0mm_P5.00mm)
      (datasheet ~)
      (libsource (lib Device) (part CP1) (description "Polarized capacitor, US symbol"))
      (sheetpath (names /) (tstamps /))
      (tstamp 5D1D9A34))
    (comp (ref C3)
      (value 1uF)
      (footprint Capacitor_THT:C_Disc_D5.0mm_W2.5mm_P2.50mm)
      (datasheet ~)
      (libsource (lib Device) (part C) (description "Unpolarized capacitor"))
      (sheetpath (names /) (tstamps /))
      (tstamp 5CF59B3C))
    (comp (ref C5)
      (value 33pF)
      (footprint Capacitor_THT:C_Disc_D5.0mm_W2.5mm_P2.50mm)
      (datasheet ~)
      (libsource (lib Device) (part C) (description "Unpolarized capacitor"))
      (sheetpath (names /) (tstamps /))
      (tstamp 5CFB32F1))
    (comp (ref C7)
      (value 10pF)
      (footprint Capacitor_THT:C_Disc_D5.0mm_W2.5mm_P2.50mm)
      (datasheet ~)
      (libsource (lib Device) (part C) (description "Unpolarized capacitor"))
      (sheetpath (names /) (tstamps /))
      (tstamp 5CFB3A9F))
    (comp (ref R11)
      (value 470)
      (footprint Resistor_THT:R_Axial_DIN0207_L6.3mm_D2.5mm_P2.54mm_Vertical)
      (datasheet ~)
      (libsource (lib Device) (part R) (description Resistor))
      (sheetpath (names /) (tstamps /))
      (tstamp 5D30B585))
    (comp (ref D3)
      (value LED)
      (footprint LED_THT:LED_D4.0mm)
      (libsource (lib V1.3-rescue) (part LED-DC_V1.1_30Jan2019-cache-V1.1-rescue-V1.2-rescue) (description ""))
      (sheetpath (names /) (tstamps /))
      (tstamp 5D30B58B))
    (comp (ref J1)
      (value Screw_Terminal_01x02)
      (footprint TerminalBlock_Phoenix:TerminalBlock_Phoenix_MKDS-1,5-2-5.08_1x02_P5.08mm_Horizontal)
      (datasheet ~)
      (libsource (lib Connector) (part Screw_Terminal_01x02) (description "Generic screw terminal, single row, 01x02, script generated (kicad-library-utils/schlib/autogen/connector/)"))
      (sheetpath (names /) (tstamps /))
      (tstamp 5D431722))
    (comp (ref U3)
      (value LM2596module)
      (footprint "KiCAD libraries:LM2596_module")
      (libsource (lib lm2596module) (part LM2596module) (description ""))
      (sheetpath (names /) (tstamps /))
      (tstamp 5D47E966))
    (comp (ref D4)
      (value 1N4001)
      (footprint Diode_THT:D_A-405_P2.54mm_Vertical_AnodeUp)
      (datasheet ~)
      (libsource (lib Device) (part D) (description Diode))
      (sheetpath (names /) (tstamps /))
      (tstamp 5D4B841E))
    (comp (ref JP2)
      (value Jumper_NC_Small)
      (footprint Connector_PinHeader_2.54mm:PinHeader_1x02_P2.54mm_Vertical)
      (datasheet ~)
      (libsource (lib Device) (part Jumper_NC_Small) (description "Jumper, normally closed, small symbol"))
      (sheetpath (names /) (tstamps /))
      (tstamp 5D4F7A34))
    (comp (ref U1)
      (value WeMos_D1_mini)
      (footprint Module:WEMOS_D1_mini_light)
      (datasheet https://wiki.wemos.cc/products:d1:d1_mini#documentation)
      (libsource (lib V1.3-rescue) (part WeMos_D1_mini-MCU_Module-V1.1-rescue-V1.2-rescue) (description ""))
      (sheetpath (names /) (tstamps /))
      (tstamp 5CF82562))
    (comp (ref R3)
      (value 470)
      (footprint Resistor_THT:R_Axial_DIN0207_L6.3mm_D2.5mm_P2.54mm_Vertical)
      (datasheet ~)
      (libsource (lib Device) (part R) (description Resistor))
      (sheetpath (names /) (tstamps /))
      (tstamp 5DC89CC0))
    (comp (ref D5)
      (value LED)
      (footprint LED_THT:LED_D4.0mm)
      (libsource (lib V1.3-rescue) (part LED-DC_V1.1_30Jan2019-cache-V1.1-rescue-V1.2-rescue) (description ""))
      (sheetpath (names /) (tstamps /))
      (tstamp 5DC89CC6))
    (comp (ref JP1)
      (value Jumper_NC_Dual)
      (footprint Connector_PinHeader_2.54mm:PinHeader_1x03_P2.54mm_Vertical)
      (datasheet ~)
      (libsource (lib Device) (part Jumper_NC_Dual) (description "Dual jumper, normally closed"))
      (sheetpath (names /) (tstamps /))
      (tstamp 5DD6A61C))
    (comp (ref J4)
      (value Screw_Terminal_01x02)
      (footprint TerminalBlock_Phoenix:TerminalBlock_Phoenix_MKDS-1,5-2-5.08_1x02_P5.08mm_Horizontal)
      (datasheet ~)
      (libsource (lib Connector) (part Screw_Terminal_01x02) (description "Generic screw terminal, single row, 01x02, script generated (kicad-library-utils/schlib/autogen/connector/)"))
      (sheetpath (names /) (tstamps /))
      (tstamp 5DD8FC8B))
    (comp (ref J5)
      (value Screw_Terminal_01x04)
      (footprint TerminalBlock_Phoenix:TerminalBlock_Phoenix_MPT-0,5-4-2.54_1x04_P2.54mm_Horizontal)
      (datasheet ~)
      (libsource (lib Connector) (part Screw_Terminal_01x04) (description "Generic screw terminal, single row, 01x04, script generated (kicad-library-utils/schlib/autogen/connector/)"))
      (sheetpath (names /) (tstamps /))
      (tstamp 5DD9095C)))
  (libparts
    (libpart (lib Connector) (part Screw_Terminal_01x02)
      (description "Generic screw terminal, single row, 01x02, script generated (kicad-library-utils/schlib/autogen/connector/)")
      (docs ~)
      (footprints
        (fp TerminalBlock*:*))
      (fields
        (field (name Reference) J)
        (field (name Value) Screw_Terminal_01x02))
      (pins
        (pin (num 1) (name Pin_1) (type passive))
        (pin (num 2) (name Pin_2) (type passive))))
    (libpart (lib Connector) (part Screw_Terminal_01x04)
      (description "Generic screw terminal, single row, 01x04, script generated (kicad-library-utils/schlib/autogen/connector/)")
      (docs ~)
      (footprints
        (fp TerminalBlock*:*))
      (fields
        (field (name Reference) J)
        (field (name Value) Screw_Terminal_01x04))
      (pins
        (pin (num 1) (name Pin_1) (type passive))
        (pin (num 2) (name Pin_2) (type passive))
        (pin (num 3) (name Pin_3) (type passive))
        (pin (num 4) (name Pin_4) (type passive))))
    (libpart (lib Connector_Generic) (part Conn_01x05)
      (description "Generic connector, single row, 01x05, script generated (kicad-library-utils/schlib/autogen/connector/)")
      (docs ~)
      (footprints
        (fp Connector*:*_1x??_*))
      (fields
        (field (name Reference) J)
        (field (name Value) Conn_01x05))
      (pins
        (pin (num 1) (name Pin_1) (type passive))
        (pin (num 2) (name Pin_2) (type passive))
        (pin (num 3) (name Pin_3) (type passive))
        (pin (num 4) (name Pin_4) (type passive))
        (pin (num 5) (name Pin_5) (type passive))))
    (libpart (lib Device) (part C)
      (description "Unpolarized capacitor")
      (docs ~)
      (footprints
        (fp C_*))
      (fields
        (field (name Reference) C)
        (field (name Value) C))
      (pins
        (pin (num 1) (name ~) (type passive))
        (pin (num 2) (name ~) (type passive))))
    (libpart (lib Device) (part CP1)
      (description "Polarized capacitor, US symbol")
      (docs ~)
      (footprints
        (fp CP_*))
      (fields
        (field (name Reference) C)
        (field (name Value) CP1))
      (pins
        (pin (num 1) (name ~) (type passive))
        (pin (num 2) (name ~) (type passive))))
    (libpart (lib Device) (part D)
      (description Diode)
      (docs ~)
      (footprints
        (fp TO-???*)
        (fp *_Diode_*)
        (fp *SingleDiode*)
        (fp D_*))
      (fields
        (field (name Reference) D)
        (field (name Value) D))
      (pins
        (pin (num 1) (name K) (type passive))
        (pin (num 2) (name A) (type passive))))
    (libpart (lib Device) (part D_TVS)
      (description "Bidirectional transient-voltage-suppression diode")
      (docs ~)
      (footprints
        (fp TO-???*)
        (fp *_Diode_*)
        (fp *SingleDiode*)
        (fp D_*))
      (fields
        (field (name Reference) D)
        (field (name Value) D_TVS))
      (pins
        (pin (num 1) (name A1) (type passive))
        (pin (num 2) (name A2) (type passive))))
    (libpart (lib Device) (part D_Zener)
      (description "Zener diode")
      (docs ~)
      (footprints
        (fp TO-???*)
        (fp *_Diode_*)
        (fp *SingleDiode*)
        (fp D_*))
      (fields
        (field (name Reference) D)
        (field (name Value) D_Zener))
      (pins
        (pin (num 1) (name K) (type passive))
        (pin (num 2) (name A) (type passive))))
    (libpart (lib Device) (part Fuse)
      (description Fuse)
      (docs ~)
      (footprints
        (fp *Fuse*))
      (fields
        (field (name Reference) F)
        (field (name Value) Fuse))
      (pins
        (pin (num 1) (name ~) (type passive))
        (pin (num 2) (name ~) (type passive))))
    (libpart (lib Device) (part Jumper_NC_Dual)
      (description "Dual jumper, normally closed")
      (docs ~)
      (footprints
        (fp SolderJumper*Bridged*))
      (fields
        (field (name Reference) JP)
        (field (name Value) Jumper_NC_Dual))
      (pins
        (pin (num 1) (name 1) (type passive))
        (pin (num 2) (name 2) (type passive))
        (pin (num 3) (name 3) (type passive))))
    (libpart (lib Device) (part Jumper_NC_Small)
      (description "Jumper, normally closed, small symbol")
      (docs ~)
      (footprints
        (fp SolderJumper*Bridged*))
      (fields
        (field (name Reference) JP)
        (field (name Value) Jumper_NC_Small))
      (pins
        (pin (num 1) (name 1) (type passive))
        (pin (num 2) (name 2) (type passive))))
    (libpart (lib Device) (part Jumper_NO_Small)
      (description "Jumper, normally open, small symbol")
      (docs ~)
      (footprints
        (fp SolderJumper*Open*))
      (fields
        (field (name Reference) JP)
        (field (name Value) Jumper_NO_Small))
      (pins
        (pin (num 1) (name 1) (type passive))
        (pin (num 2) (name 2) (type passive))))
    (libpart (lib Device) (part R)
      (description Resistor)
      (docs ~)
      (footprints
        (fp R_*))
      (fields
        (field (name Reference) R)
        (field (name Value) R))
      (pins
        (pin (num 1) (name ~) (type passive))
        (pin (num 2) (name ~) (type passive))))
    (libpart (lib Regulator_Linear) (part MIC29302WU)
      (aliases
        (alias MIC29502WU))
      (description "3A low dropout linear regulator, adjustable output, TO-263")
      (docs http://ww1.microchip.com/downloads/en/devicedoc/20005685a.pdf)
      (footprints
        (fp TO*263*))
      (fields
        (field (name Reference) U)
        (field (name Value) MIC29302WU)
        (field (name Footprint) Package_TO_SOT_SMD:TO-263-5_TabPin3))
      (pins
        (pin (num 1) (name EN) (type input))
        (pin (num 2) (name VIN) (type power_in))
        (pin (num 3) (name GND) (type power_in))
        (pin (num 4) (name VOUT) (type power_out))
        (pin (num 5) (name ADJ) (type input))))
    (libpart (lib Transistor_FET) (part 2N7000)
      (aliases
        (alias TP0610L)
        (alias VP0610L))
      (description "0.2A Id, 200V Vds, N-Channel MOSFET, 2.6V Logic Level, TO-92")
      (docs https://www.fairchildsemi.com/datasheets/2N/2N7000.pdf)
      (footprints
        (fp TO?92*))
      (fields
        (field (name Reference) Q)
        (field (name Value) 2N7000)
        (field (name Footprint) Package_TO_SOT_THT:TO-92_Inline))
      (pins
        (pin (num 1) (name S) (type passive))
        (pin (num 2) (name G) (type input))
        (pin (num 3) (name D) (type passive))))
    (libpart (lib V1.3-rescue) (part BME280_module-BME280-V1.1-rescue-V1.2-rescue)
      (fields
        (field (name Reference) U)
        (field (name Value) BME280_module-BME280-V1.1-rescue-V1.2-rescue))
      (pins
        (pin (num 1) (name GND) (type power_out))
        (pin (num 2) (name 3.3V) (type power_in))
        (pin (num 3) (name SDA) (type BiDi))
        (pin (num 4) (name SCL) (type BiDi))
        (pin (num 5) (name GND) (type power_out))
        (pin (num 6) (name 3.3V) (type power_in))
        (pin (num 7) (name SCK) (type input))
        (pin (num 8) (name SDO) (type output))
        (pin (num 9) (name SDI) (type input))
        (pin (num 10) (name ~CS) (type input))))
    (libpart (lib V1.3-rescue) (part LED-DC_V1.1_30Jan2019-cache-V1.1-rescue-V1.2-rescue)
      (footprints
        (fp LED*))
      (fields
        (field (name Reference) D)
        (field (name Value) LED-DC_V1.1_30Jan2019-cache-V1.1-rescue-V1.2-rescue))
      (pins
        (pin (num 1) (name K) (type passive))
        (pin (num 2) (name A) (type passive))))
    (libpart (lib V1.3-rescue) (part SIM800L-sim800l-V1.1-rescue-V1.2-rescue)
      (fields
        (field (name Reference) U)
        (field (name Value) SIM800L-sim800l-V1.1-rescue-V1.2-rescue))
      (pins
        (pin (num 1) (name NET) (type input))
        (pin (num 2) (name VCC) (type input))
        (pin (num 3) (name RST) (type input))
        (pin (num 4) (name RX) (type input))
        (pin (num 5) (name TX) (type input))
        (pin (num 6) (name GND) (type input))
        (pin (num 7) (name RING) (type input))
        (pin (num 8) (name DTR) (type input))
        (pin (num 9) (name MIC+) (type input))
        (pin (num 10) (name MIC-) (type input))
        (pin (num 11) (name SPK+) (type input))
        (pin (num 12) (name SPK-) (type input))))
    (libpart (lib V1.3-rescue) (part Screw_Terminal_01x02-AQS_PCB-rescue-V1.1-rescue-V1.2-rescue)
      (footprints
        (fp Connector*Terminal*Block*:*)
        (fp TerminalBlock*))
      (fields
        (field (name Reference) J)
        (field (name Value) Screw_Terminal_01x02-AQS_PCB-rescue-V1.1-rescue-V1.2-rescue))
      (pins
        (pin (num 1) (name Pin_1) (type passive))
        (pin (num 2) (name Pin_2) (type passive))))
    (libpart (lib V1.3-rescue) (part WeMos_D1_mini-MCU_Module-V1.1-rescue-V1.2-rescue)
      (footprints
        (fp WEMOS*D1*mini*))
      (fields
        (field (name Reference) U)
        (field (name Value) WeMos_D1_mini-MCU_Module-V1.1-rescue-V1.2-rescue)
        (field (name Footprint) Module:WEMOS_D1_mini_light))
      (pins
        (pin (num 1) (name ~RST) (type input))
        (pin (num 2) (name A0) (type input))
        (pin (num 3) (name D0) (type BiDi))
        (pin (num 4) (name SCK/D5) (type BiDi))
        (pin (num 5) (name MISO/D6) (type BiDi))
        (pin (num 6) (name MOSI/D7) (type BiDi))
        (pin (num 7) (name CS/D8) (type BiDi))
        (pin (num 8) (name 3V3) (type power_out))
        (pin (num 9) (name 5V) (type power_in))
        (pin (num 10) (name GND) (type power_in))
        (pin (num 11) (name D4) (type BiDi))
        (pin (num 12) (name D3) (type BiDi))
        (pin (num 13) (name SDA/D2) (type BiDi))
        (pin (num 14) (name SCL/D1) (type BiDi))
        (pin (num 15) (name RX) (type input))
        (pin (num 16) (name TX) (type output))))
    (libpart (lib lm2596module) (part LM2596module)
      (fields
        (field (name Reference) U)
        (field (name Value) LM2596module))
      (pins
        (pin (num 1) (name IN+) (type input))
        (pin (num 2) (name IN-) (type input))
        (pin (num 3) (name OUT+) (type input))
        (pin (num 4) (name OUT-) (type input)))))
  (libraries
    (library (logical Connector)
      (uri "C:/Program Files/KiCad/share/kicad/library/Connector.lib"))
    (library (logical Connector_Generic)
      (uri "C:/Program Files/KiCad/share/kicad/library/Connector_Generic.lib"))
    (library (logical Device)
      (uri "C:/Program Files/KiCad/share/kicad/library/Device.lib"))
    (library (logical Regulator_Linear)
      (uri "C:/Program Files/KiCad/share/kicad/library/Regulator_Linear.lib"))
    (library (logical Transistor_FET)
      (uri "C:/Program Files/KiCad/share/kicad/library/Transistor_FET.lib"))
    (library (logical V1.3-rescue)
      (uri D:\SmallDesign\Breathe_V2\V1.3\PCB\3Nov2019/V1.3-rescue.lib))
    (library (logical lm2596module)
      (uri "D:/SmallDesign/KiCAD libraries/lm2596module.lib")))
  (nets
    (net (code 1) (name "Net-(F1-Pad2)")
      (node (ref F1) (pin 2))
      (node (ref J1) (pin 1)))
    (net (code 2) (name 12V)
      (node (ref J2) (pin 1))
      (node (ref D2) (pin 1))
      (node (ref D4) (pin 1))
      (node (ref JP1) (pin 3))
      (node (ref U3) (pin 1)))
    (net (code 3) (name "Net-(R13-Pad1)")
      (node (ref R13) (pin 1))
      (node (ref U4) (pin 3)))
    (net (code 4) (name "Net-(D4-Pad2)")
      (node (ref D4) (pin 2))
      (node (ref F1) (pin 1)))
    (net (code 5) (name "Net-(R12-Pad2)")
      (node (ref R12) (pin 2))
      (node (ref R14) (pin 1))
      (node (ref U2) (pin 5)))
    (net (code 6) (name "Net-(D3-Pad2)")
      (node (ref D3) (pin 2))
      (node (ref R11) (pin 2)))
    (net (code 7) (name 4V)
      (node (ref C3) (pin 1))
      (node (ref C2) (pin 1))
      (node (ref C7) (pin 1))
      (node (ref C5) (pin 1))
      (node (ref R13) (pin 2))
      (node (ref U2) (pin 4))
      (node (ref U4) (pin 2))
      (node (ref R12) (pin 1)))
    (net (code 8) (name "Net-(J4-Pad1)")
      (node (ref JP1) (pin 2))
      (node (ref J4) (pin 1)))
    (net (code 9) (name 5V_uf)
      (node (ref U2) (pin 1))
      (node (ref U2) (pin 2))
      (node (ref C1) (pin 1))
      (node (ref JP1) (pin 1))
      (node (ref U3) (pin 3))
      (node (ref JP2) (pin 1)))
    (net (code 10) (name D0_GPIO16)
      (node (ref J5) (pin 4))
      (node (ref U1) (pin 3)))
    (net (code 11) (name "Net-(D5-Pad2)")
      (node (ref R3) (pin 2))
      (node (ref D5) (pin 2)))
    (net (code 12) (name D4_GPIO2)
      (node (ref R3) (pin 1))
      (node (ref J5) (pin 2))
      (node (ref U1) (pin 11)))
    (net (code 13) (name D3_GPIO0)
      (node (ref U1) (pin 12))
      (node (ref J5) (pin 3)))
    (net (code 14) (name D8_GPIO15)
      (node (ref U1) (pin 7))
      (node (ref J5) (pin 1)))
    (net (code 15) (name "Net-(U1-Pad2)")
      (node (ref U1) (pin 2)))
    (net (code 16) (name "Net-(U1-Pad16)")
      (node (ref U1) (pin 16)))
    (net (code 17) (name "Net-(U1-Pad15)")
      (node (ref U1) (pin 15)))
    (net (code 18) (name SCL_3.3V)
      (node (ref R6) (pin 2))
      (node (ref U1) (pin 14))
      (node (ref U5) (pin 4))
      (node (ref Q2) (pin 1)))
    (net (code 19) (name SDA_3.3V)
      (node (ref Q1) (pin 1))
      (node (ref U1) (pin 13))
      (node (ref U5) (pin 3))
      (node (ref R5) (pin 2)))
    (net (code 20) (name "Net-(U1-Pad1)")
      (node (ref U1) (pin 1)))
    (net (code 21) (name SIM800_Tx->Wemos_Rx)
      (node (ref U1) (pin 4))
      (node (ref U4) (pin 5)))
    (net (code 22) (name GND)
      (node (ref JP4) (pin 1))
      (node (ref R4) (pin 2))
      (node (ref J2) (pin 2))
      (node (ref J3) (pin 5))
      (node (ref J1) (pin 2))
      (node (ref C1) (pin 2))
      (node (ref D1) (pin 2))
      (node (ref C8) (pin 2))
      (node (ref C6) (pin 2))
      (node (ref C10) (pin 2))
      (node (ref C4) (pin 2))
      (node (ref U3) (pin 2))
      (node (ref U3) (pin 4))
      (node (ref D2) (pin 2))
      (node (ref U5) (pin 1))
      (node (ref U4) (pin 6))
      (node (ref R2) (pin 2))
      (node (ref U2) (pin 3))
      (node (ref U1) (pin 10))
      (node (ref D5) (pin 1))
      (node (ref J4) (pin 2))
      (node (ref C2) (pin 2))
      (node (ref C5) (pin 2))
      (node (ref R14) (pin 2))
      (node (ref D3) (pin 1))
      (node (ref C7) (pin 2))
      (node (ref C3) (pin 2)))
    (net (code 23) (name 3.3V)
      (node (ref Q1) (pin 2))
      (node (ref U5) (pin 2))
      (node (ref U1) (pin 8))
      (node (ref R5) (pin 1))
      (node (ref R6) (pin 1))
      (node (ref Q2) (pin 2)))
    (net (code 24) (name 5V)
      (node (ref C4) (pin 1))
      (node (ref D1) (pin 1))
      (node (ref C8) (pin 1))
      (node (ref C6) (pin 1))
      (node (ref R11) (pin 1))
      (node (ref C10) (pin 1))
      (node (ref U1) (pin 9))
      (node (ref R7) (pin 1))
      (node (ref R8) (pin 1))
      (node (ref J3) (pin 1))
      (node (ref JP2) (pin 2)))
    (net (code 25) (name Sim800_sleep)
      (node (ref U1) (pin 6))
      (node (ref U4) (pin 8))
      (node (ref R4) (pin 1)))
    (net (code 26) (name Wemos_Tx->SIM800_Rx)
      (node (ref U1) (pin 5))
      (node (ref R1) (pin 1)))
    (net (code 27) (name SDA_5V)
      (node (ref R7) (pin 2))
      (node (ref J3) (pin 2))
      (node (ref Q1) (pin 3)))
    (net (code 28) (name SCL_5V)
      (node (ref J3) (pin 3))
      (node (ref Q2) (pin 3))
      (node (ref R8) (pin 2)))
    (net (code 29) (name "Net-(J3-Pad4)")
      (node (ref J3) (pin 4))
      (node (ref JP4) (pin 2)))
    (net (code 30) (name "Net-(U4-Pad9)")
      (node (ref U4) (pin 9)))
    (net (code 31) (name "Net-(U4-Pad7)")
      (node (ref U4) (pin 7)))
    (net (code 32) (name "Net-(U4-Pad10)")
      (node (ref U4) (pin 10)))
    (net (code 33) (name "Net-(U4-Pad11)")
      (node (ref U4) (pin 11)))
    (net (code 34) (name "Net-(U4-Pad12)")
      (node (ref U4) (pin 12)))
    (net (code 35) (name "Net-(U4-Pad1)")
      (node (ref U4) (pin 1)))
    (net (code 36) (name "Net-(R1-Pad2)")
      (node (ref U4) (pin 4))
      (node (ref R1) (pin 2))
      (node (ref R2) (pin 1)))
    (net (code 37) (name "Net-(U5-Pad10)")
      (node (ref U5) (pin 10)))
    (net (code 38) (name "Net-(U5-Pad9)")
      (node (ref U5) (pin 9)))
    (net (code 39) (name "Net-(U5-Pad8)")
      (node (ref U5) (pin 8)))
    (net (code 40) (name "Net-(U5-Pad7)")
      (node (ref U5) (pin 7)))
    (net (code 41) (name "Net-(U5-Pad6)")
      (node (ref U5) (pin 6)))
    (net (code 42) (name "Net-(U5-Pad5)")
      (node (ref U5) (pin 5)))))