M48
; DRILL file {KiCad (5.1.0)-1} date 11/06/19 12:10:44 PM
; FORMAT={-:-/ absolute / metric / decimal}
; #@! TF.CreationDate,2019-11-06T12:10:44+05:30
; #@! TF.GenerationSoftware,Kicad,Pcbnew,(5.1.0)-1
FMAT,2
METRIC
T1C0.700
T2C0.800
T3C0.900
T4C1.000
T5C1.100
T6C1.300
%
G90
G05
T1
X-45.1Y51.4
X-41.5Y51.8
X-39.5Y68.1
X-36.4Y43.3
X-35.2Y69.2
X-31.6Y33.3
X-31.4Y58.5
X-31.4Y47.1
X-30.12Y44.7
X-30.0Y51.55
X-30.0Y49.15
X-29.954Y54.188
X-29.92Y56.588
X-29.722Y46.68
X-29.2Y38.3
X-27.2Y56.6
X-27.2Y54.2
X-27.2Y51.55
X-27.2Y49.15
X-27.2Y46.75
X-27.2Y44.35
X-26.1Y38.1
X-24.9Y32.6
X-24.4Y56.55
X-24.4Y54.15
X-24.4Y51.5
X-24.4Y49.1
X-24.4Y46.7
X-24.4Y44.3
X-21.55Y56.5
X-21.55Y54.1
X-21.55Y51.45
X-21.55Y49.05
X-21.55Y46.65
X-21.55Y44.25
X-20.0Y39.6
X-18.85Y56.55
X-18.85Y54.15
X-18.85Y51.5
X-18.85Y49.1
X-18.85Y46.7
X-18.85Y44.3
X-16.1Y56.55
X-16.1Y54.15
X-16.1Y51.5
X-16.1Y49.1
X-16.1Y46.7
X-16.1Y44.3
X-14.1Y19.8
X-10.7Y18.5
X-8.1Y65.8
X-7.65Y50.26
X-7.4Y37.9
X-7.4Y32.7
X-7.307Y62.7
X-1.4Y78.1
X-1.4Y75.7
X-1.4Y73.05
X-1.4Y70.65
X-1.4Y68.25
X-1.35Y65.9
X0.2Y58.7
X1.15Y78.1
X1.15Y75.7
X1.15Y73.05
X1.15Y70.65
X1.15Y68.25
X1.2Y65.9
X3.95Y78.1
X3.95Y75.7
X3.95Y73.05
X3.95Y70.65
X3.95Y68.25
X4.0Y65.9
X4.1Y53.6
X6.8Y78.05
X6.8Y75.65
X6.8Y73.0
X6.8Y70.6
X6.8Y68.2
X6.85Y65.85
X9.5Y78.1
X9.5Y75.7
X9.5Y73.05
X9.5Y70.65
X9.5Y68.25
X9.55Y65.9
X12.25Y78.1
X12.25Y75.7
X12.25Y73.05
X12.25Y70.65
X12.25Y68.25
X12.3Y65.9
X15.0Y64.15
X15.35Y42.5
X16.5Y14.9
X28.15Y50.0
X29.85Y52.435
X36.7Y59.35
T2
X16.65Y60.6
X19.15Y60.6
X-42.08Y65.0
X-39.54Y65.0
X-37.0Y65.0
X23.05Y60.7
X25.55Y60.7
X-37.4Y61.04
X-37.4Y58.5
X11.3Y58.4
X11.3Y55.86
X42.1Y61.7
X44.64Y61.7
X-41.83Y53.8
X-39.29Y53.8
X-36.75Y53.8
X20.2Y81.2
X20.2Y78.7
X-37.25Y49.79
X-37.25Y47.25
X22.95Y57.3
X25.45Y57.3
X-41.6Y61.04
X-41.6Y58.5
X20.5Y75.54
X20.5Y73.0
X16.9Y50.7
X19.4Y50.7
X-5.24Y61.1
X-2.7Y61.1
X5.45Y61.1
X7.99Y61.1
X26.4Y81.2
X26.4Y78.7
X0.15Y61.1
X2.69Y61.1
X23.3Y81.2
X23.3Y78.7
X-41.35Y49.84
X-41.35Y47.3
X10.8Y25.64
X10.8Y23.1
X36.8Y61.7
X39.34Y61.7
T3
X14.2Y24.1
X16.74Y24.1
X-49.25Y27.9
X-47.98Y25.7
X11.95Y52.64
X11.95Y50.1
X-50.399Y31.11
X-46.0Y33.65
T4
X16.61Y57.3
X19.15Y57.3
X-48.965Y45.393
X-48.307Y47.847
X-47.65Y50.3
X-46.993Y52.753
X-46.335Y55.207
X8.96Y46.33
X8.96Y29.18
X48.46Y46.33
X48.46Y29.18
X-44.75Y40.35
X-39.75Y40.35
X-27.08Y79.34
X-27.08Y69.18
X-24.54Y79.34
X-24.54Y69.18
X-22.0Y79.34
X-22.0Y69.18
X-19.46Y79.34
X-19.46Y69.18
X-16.92Y69.18
X-14.38Y69.18
X11.5Y18.3
X14.04Y18.3
X16.58Y18.3
X-33.66Y58.6
X-33.66Y56.06
X-33.66Y53.52
X-33.66Y50.98
X-33.66Y48.44
X-33.66Y45.9
X-33.66Y43.36
X-33.66Y40.82
X-10.8Y58.6
X-10.8Y56.06
X-10.8Y53.52
X-10.8Y50.98
X-10.8Y48.44
X-10.8Y45.9
X-10.8Y43.36
X-10.8Y40.82
X-49.9Y41.14
X-49.9Y38.6
X34.3Y72.1
X34.3Y67.1
X-5.14Y78.14
X-5.14Y75.6
X-5.14Y73.06
X-5.14Y70.52
X-5.14Y67.98
X-5.14Y65.44
X16.56Y80.68
X16.56Y78.14
X16.56Y75.6
X16.56Y73.06
X16.56Y70.52
X16.56Y67.98
X22.96Y50.8
X25.5Y50.8
X-45.05Y21.15
X-39.35Y11.277
T5
X-31.2Y9.22
X-31.2Y6.68
X-31.2Y4.14
X-31.2Y1.6
T6
X39.2Y20.3
X43.599Y17.76
X-41.8Y27.3
X-37.401Y29.84
X25.3Y20.4
X29.699Y17.86
T0
M30
